{
  "$schema": "http://adaptivecards.io/schemas/adaptive-card.json",
  "type": "AdaptiveCard",
  "minHeight": "300px",
  "version": "1.0",
  "body": [
    {
      "speak": "Tom's Pie is a Pizza restaurant which is rated 9.3 by customers.",
      "type": "ColumnSet",
      "columns": [
        {
          "type": "Column",
          "width": "auto",
          "items": [
            {
              "type": "TextBlock",
              "text": "vBot",
              "weight": "bolder",
              "size": "extraLarge"
            },
            {
              "type": "TextBlock",
              "text": "Hi! I am vBot. It's nice to meet you",
              "size": "small",
              "wrap": true
            },
            {
              "type": "TextBlock",
              "text": "I am designed to assist you with queries releated with system issues am=nd oricesses releated items for Time, Purchasing, Workflow, Inbox and Vendor Invoices. \n\n---\n\n To get started, click on the below button and lets see how I can I help you.",
              "size": "small",
              "wrap": true,
              
              "height":"stretch"
              
            }
          ]
        },
        {
          "type": "Column",
          "width": "stretch",
          "items": [
            {
              "type": "Image",
              "url": "https://image.shutterstock.com/image-vector/bot-icon-chatbot-cute-smiling-260nw-715418281.jpg",
              "size": "medium",
              "horizontalAlignment": "center",
              "style": "person"
            }
          ]
        }
      ]
    }
  ],
  "actions": [
    {
      "type": "Action.Submit",
      "title": "Lets get started",
      "data": {
       "title":"Lets get started"
      }
      
    }
  ]
}